[gd_scene load_steps=6 format=2]

[ext_resource path="res://assets/characters/player_pixel.png" type="Texture" id=1]
[ext_resource path="res://assets/sounds/player_hurt.wav" type="AudioStream" id=2]

[sub_resource type="Animation" id=1]
resource_name = "Cast"
length = 0.7
tracks/0/type = "value"
tracks/0/path = NodePath("Sprite:frame")
tracks/0/interp = 1
tracks/0/loop_wrap = true
tracks/0/imported = false
tracks/0/enabled = true
tracks/0/keys = {
"times": PoolRealArray( 0, 0.1, 0.7 ),
"transitions": PoolRealArray( 1, 1, 1 ),
"update": 1,
"values": [ 0, 3, 0 ]
}

[sub_resource type="Animation" id=2]
length = 1.3
tracks/0/type = "value"
tracks/0/path = NodePath("Sprite:frame")
tracks/0/interp = 1
tracks/0/loop_wrap = true
tracks/0/imported = false
tracks/0/enabled = true
tracks/0/keys = {
"times": PoolRealArray( 0, 0.5, 1.2 ),
"transitions": PoolRealArray( 1, 1, 1 ),
"update": 1,
"values": [ 0, 2, 0 ]
}
tracks/1/type = "value"
tracks/1/path = NodePath("Hit:playing")
tracks/1/interp = 1
tracks/1/loop_wrap = true
tracks/1/imported = false
tracks/1/enabled = true
tracks/1/keys = {
"times": PoolRealArray( 0.5 ),
"transitions": PoolRealArray( 1 ),
"update": 1,
"values": [ true ]
}

[sub_resource type="Animation" id=3]
loop = true
tracks/0/type = "value"
tracks/0/path = NodePath("Sprite:frame")
tracks/0/interp = 1
tracks/0/loop_wrap = true
tracks/0/imported = false
tracks/0/enabled = true
tracks/0/keys = {
"times": PoolRealArray( 0, 0.5, 1 ),
"transitions": PoolRealArray( 1, 1, 1 ),
"update": 1,
"values": [ 0, 1, 0 ]
}

[node name="Player" type="Node2D"]

[node name="Sprite" type="Sprite" parent="."]
texture = ExtResource( 1 )
centered = false
hframes = 4

[node name="AnimationPlayer" type="AnimationPlayer" parent="."]
autoplay = "Idle"
anims/Cast = SubResource( 1 )
anims/Hurt = SubResource( 2 )
anims/Idle = SubResource( 3 )

[node name="Hit" type="AudioStreamPlayer" parent="."]
stream = ExtResource( 2 )
