[gd_resource type="DynamicFont" load_steps=2 format=2]

[ext_resource path="res://assets/ui/silver.ttf" type="DynamicFontData" id=1]

[resource]
size = 38
extra_spacing_bottom = -20
font_data = ExtResource( 1 )
